6 Exam 1 – COMP/STAT112 Notebook
…
# A tibble: 6 × 4
  country    food_category            consumption co2_emmission
  <chr>      <chr>                          <dbl>         <dbl>
1 Bangladesh Eggs                            2.08          1.91
2 Bangladesh Milk - inc. cheese             21.9          31.2 
3 Bangladesh Wheat and Wheat Products       17.5           3.33
4 Bangladesh Rice                          172.          220.  
5 Bangladesh Soybeans                        0.61          0.27
6 Bangladesh Nuts inc. Peanut Butter         0.72          1.27

Code
head(fc, 22)

# A tibble: 22 × 4
   country   food_category            consumption co2_emmission
   <chr>     <chr>                          <dbl>         <dbl>
 1 Argentina Pork                           10.5          37.2 
 2 Argentina Poultry                        38.7          41.5 
 3 Argentina Beef                           55.5        1712   
 4 Argentina Lamb & Goat                     1.56         54.6 
 5 Argentina Fish                            4.36          6.96
 6 Argentina Eggs                           11.4          10.5 
 7 Argentina Milk - inc. cheese            195.          278.  
 8 Argentina Wheat and Wheat Products      103.           19.7 
 9 Argentina Rice                            8.77         11.2 
10 Argentina Soybeans                        0             0   
# ℹ 12 more rows
…
